<?xml version="1.0" encoding="UTF-8" standalone="no"?>
<svg width="152px" height="42px" viewBox="0 0 152 42" version="1.1" xmlns="http://www.w3.org/2000/svg" xmlns:xlink="http://www.w3.org/1999/xlink">
    <!-- Generator: sketchtool 41.2 (35397) - http://www.bohemiancoding.com/sketch -->
    <title>AC898EAE-F853-49AB-B48D-0DFBA3095FFE</title>
    <desc>Created with sketchtool.</desc>
    <defs>
        <polygon id="path-1" points="0 41.4819376 151.497939 41.4819376 151.497939 0.2832422 0 0.2832422"></polygon>
    </defs>
    <g id="Page-1" stroke="none" stroke-width="1" fill="none" fill-rule="evenodd">
        <g id="Bigfinite_home" transform="translate(-90.000000, -28.000000)">
            <g id="Menu" transform="translate(-855.000000, -1.000000)">
                <g id="Page-1" transform="translate(945.000000, 29.000000)">
                    <polygon id="Fill-1" fill="#FEFEFE" points="22.9146909 9.01878046 22.9146909 20.126443 11.4747717 26.6586655 11.4747717 32.9783593 26.7407919 41.6920374 38.3219636 35.0839118 26.393802 28.2723658 26.393802 10.8465276 30.0817212 8.7424931 26.7407919 6.83580673"></polygon>
                    <polygon id="Fill-2" fill="#FEFEFE" points="41.6567515 2.13057233 30.0817212 8.74173407 42.0083475 15.5502439 42.0083475 32.9776002 38.3219636 35.0846709 41.6567515 36.9913572 56.9258424 28.2731249 56.9258424 10.8457686"></polygon>
                    <polygon id="Stroke-3" stroke="#FEFEFE" stroke-width="0.044" points="41.6567515 2.13057233 30.0817212 8.74173407 42.0083475 15.5502439 42.0083475 32.9776002 38.3219636 35.0846709 41.6567515 36.9913572 56.9258424 28.2731249 56.9258424 10.8457686"></polygon>
                    <polygon id="Fill-4" fill="#FEFEFE" points="0.0331636364 7.06093539 0.0331636364 20.1268984 11.4746182 26.6591209 11.4746182 15.5499403 22.9145374 9.01923588 22.9145374 7.06093539 11.4746182 0.533267077"></polygon>
                    <g id="Group-17" transform="translate(0.000000, 0.210859)">
                        <polygon id="Stroke-5" stroke="#FEFEFE" stroke-width="0.044" points="22.9146909 8.80746617 22.9146909 6.85068374 11.4747717 0.321497373 0.0333171717 6.85068374 0.0333171717 19.9151287 11.4747717 26.4473512 11.4747717 15.3396887"></polygon>
                        <path d="M70.0322343,17.906884 C69.0465374,17.906884 68.3264566,18.2074603 67.8735273,18.807095 C67.4190626,19.4067296 67.1841535,20.3965063 67.1657293,21.776425 L67.1657293,22.2045186 C67.1657293,23.7574965 67.399103,24.8702362 67.8658505,25.5427378 C68.3341333,26.2167576 69.0726384,26.5522493 70.0844364,26.5522493 C70.9043152,26.5522493 71.5568404,26.178806 72.0420121,25.4319193 C72.5256485,24.6865507 72.7682343,23.601136 72.7682343,22.1771935 C72.7682343,20.754769 72.5241131,19.6875712 72.0343354,18.9755999 C71.5460929,18.2636287 70.8782141,17.906884 70.0322343,17.906884 M71.3142545,14.7508323 C73.0430626,14.7508323 74.3957091,15.4157436 75.3721939,16.7486024 C76.3502141,18.0814612 76.8384566,19.9092083 76.8384566,22.2303257 C76.8384566,24.6197559 76.3333253,26.470274 75.3261333,27.7818799 C74.3189414,29.0919677 72.9463354,29.7492888 71.2113859,29.7492888 C69.4917899,29.7492888 68.1437495,29.1329554 67.1657293,27.8972526 L66.890901,27.8972526 L66.2245576,29.4897001 L63.1738101,29.4897001 L63.1738101,9.35412044 L67.1657293,9.35412044 L67.1657293,14.038861 C67.1657293,14.6339415 67.1135273,15.5872846 67.0091232,16.8988906 L67.1657293,16.8988906 C68.0992242,15.4673577 69.4825778,14.7508323 71.3142545,14.7508323" id="Fill-7" fill="#FEFEFE"></path>
                        <mask id="mask-2" fill="white">
                            <use xlink:href="#path-1"></use>
                        </mask>
                        <g id="Clip-10"></g>
                        <path d="M78.1264646,29.4892447 L82.1183838,29.4892447 L82.1183838,15.02211 L78.1264646,15.02211 L78.1264646,29.4892447 Z M77.9560404,11.2816043 C77.9560404,9.99580542 78.6791919,9.35518309 80.1285657,9.35518309 C81.576404,9.35518309 82.3010909,9.99580542 82.3010909,11.2816043 C82.3010909,11.8933834 82.1199192,12.3715731 81.7575758,12.711619 C81.3952323,13.0531831 80.8517172,13.2232061 80.1285657,13.2232061 C78.6791919,13.2232061 77.9560404,12.5765115 77.9560404,11.2816043 L77.9560404,11.2816043 Z" id="Fill-9" fill="#FEFEFE" mask="url(#mask-2)"></path>
                        <path d="M87.1887354,19.7584647 C87.1887354,20.543303 87.3699071,21.1641905 87.7322505,21.6226453 C88.0930586,22.078064 88.6457859,22.3072915 89.3873616,22.3072915 C90.1366141,22.3072915 90.6878061,22.078064 91.0363313,21.6226453 C91.3848566,21.1641905 91.5598869,20.543303 91.5598869,19.7584647 C91.5598869,18.0157291 90.8352,17.1428432 89.3873616,17.1428432 C87.921099,17.1428432 87.1887354,18.0157291 87.1887354,19.7584647 L87.1887354,19.7584647 Z M85.7362909,31.5340747 C85.7362909,32.0775411 86.0003717,32.5041166 86.526998,32.8153194 C87.0551596,33.1265222 87.7952,33.2813645 88.7455838,33.2813645 C90.1765333,33.2813645 91.2973414,33.0870525 92.1095434,32.6984286 C92.9202101,32.3113227 93.3270788,31.7800008 93.3270788,31.1074992 C93.3270788,30.5640328 93.0860283,30.1875534 92.606998,29.9810969 C92.1264323,29.7746404 91.3848566,29.6698941 90.3822707,29.6698941 L88.3141495,29.6698941 C87.5802505,29.6698941 86.9676444,29.8414351 86.474796,30.1814811 C85.9819475,30.5230452 85.7362909,30.9739097 85.7362909,31.5340747 L85.7362909,31.5340747 Z M97.0303515,15.02211 L97.0303515,17.0274704 L94.739604,17.6104064 C95.1587556,18.257101 95.369099,18.9812167 95.369099,19.7842718 C95.369099,21.3372496 94.8209778,22.5471453 93.7262707,23.4139589 C92.6300283,24.2807726 91.1100283,24.7149384 89.1647354,24.7149384 L88.4446545,24.6754688 L87.8566141,24.6101921 C87.4451394,24.9213949 87.2409374,25.2659951 87.2409374,25.6455107 C87.2409374,26.2163021 87.973301,26.5001798 89.4395636,26.5001798 L91.925301,26.5001798 C93.5312808,26.5001798 94.7549576,26.8417438 95.5978667,27.5218358 C96.4392404,28.2034458 96.8599273,29.205367 96.8599273,30.5245632 C96.8599273,32.2156847 96.1475232,33.5257726 94.7211798,34.459381 C93.2948364,35.3899532 91.2466747,35.8559984 88.5751596,35.8559984 C86.5346747,35.8559984 84.9747556,35.5053259 83.8969374,34.800945 C82.8191192,34.0980821 82.2802101,33.1128596 82.2802101,31.8452775 C82.2802101,30.9739097 82.5550384,30.2437217 83.1046949,29.6577496 C83.6543515,29.0717775 84.4619475,28.6527923 85.5259475,28.402312 C85.1160081,28.2292529 84.7582707,27.9484113 84.4527354,27.5552332 C84.1472,27.162055 83.9952,26.7461059 83.9952,26.3058678 C83.9952,25.7532931 84.1564121,25.2933202 84.4788364,24.9274672 C84.8012606,24.5616141 85.2695434,24.2018333 85.8790788,23.8466067 C85.111402,23.5202233 84.503402,22.9934557 84.0535434,22.2678218 C83.6052202,21.5437061 83.3795232,20.6890369 83.3795232,19.7068506 C83.3795232,18.1280657 83.8984727,16.9060255 84.9379071,16.0452841 C85.9758061,15.1815066 87.4589576,14.7503768 89.3873616,14.7503768 C89.797301,14.7503768 90.2840081,14.7868103 90.8459475,14.8596773 C91.4094222,14.9325443 91.7686949,14.9871946 91.925301,15.02211 L97.0303515,15.02211 Z" id="Fill-11" fill="#FEFEFE" mask="url(#mask-2)"></path>
                        <path d="M108.732202,29.4892447 L110.904727,29.4892447 L110.904727,15.3059877 L108.732202,15.3059877 L108.732202,29.4892447 Z M108.54796,11.4622537 C108.54796,10.9719195 108.670788,10.6121388 108.914909,10.3829113 C109.15903,10.1536839 109.464566,10.0398292 109.831515,10.0398292 C110.18004,10.0398292 110.48097,10.15672 110.734303,10.3889836 C110.986101,10.6212471 111.113535,10.9810279 111.113535,11.4622537 C111.113535,11.9465156 110.986101,12.3062964 110.734303,12.5431141 C110.48097,12.7799319 110.18004,12.8983407 109.831515,12.8983407 C109.464566,12.8983407 109.15903,12.7799319 108.914909,12.5431141 C108.670788,12.3062964 108.54796,11.9465156 108.54796,11.4622537 L108.54796,11.4622537 Z M106.114424,16.9758563 L102.461818,16.9758563 L102.461818,29.4892447 L100.289293,29.4892447 L100.289293,16.9758563 L97.7237172,16.9758563 L97.7237172,16.0042964 L100.289293,15.2300846 L100.289293,14.4391741 C100.289293,10.9537028 101.829253,9.21248522 104.909172,9.21248522 C105.669172,9.21248522 106.559677,9.36125534 107.579152,9.66486782 L107.017212,11.3848325 C106.178909,11.1191716 105.463434,10.984064 104.870788,10.984064 C104.049374,10.984064 103.442909,11.2527611 103.051394,11.7931913 C102.658343,12.3321034 102.461818,13.197399 102.461818,14.3875599 L102.461818,15.3059877 L106.114424,15.3059877 L106.114424,16.9758563 Z" id="Fill-12" fill="#FEFEFE" mask="url(#mask-2)"></path>
                        <path d="M123.316065,29.4895483 L123.316065,20.3143791 C123.316065,19.1576156 123.050448,18.2953562 122.517681,17.7260828 C121.984913,17.1568094 121.152752,16.8714136 120.018125,16.8714136 C118.518085,16.8714136 117.417236,17.2737002 116.720186,18.0752371 C116.0216,18.8782921 115.673075,20.2035606 115.673075,22.0495245 L115.673075,29.4895483 L113.500549,29.4895483 L113.500549,15.3062913 L115.266206,15.3062913 L115.620873,17.2478931 L115.725277,17.2478931 C116.170529,16.5495844 116.793883,16.0076361 117.596873,15.6235663 C118.399863,15.2394966 119.293438,15.0467026 120.279135,15.0467026 C122.006408,15.0467026 123.306853,15.4596156 124.178933,16.2839235 C125.052549,17.1082314 125.48859,18.4259095 125.48859,20.236958 L125.48859,29.4895483 L123.316065,29.4895483 Z" id="Fill-13" fill="#FEFEFE" mask="url(#mask-2)"></path>
                        <path d="M127.942545,29.4892447 L130.115071,29.4892447 L130.115071,15.3059877 L127.942545,15.3059877 L127.942545,29.4892447 Z M127.758303,11.4622537 C127.758303,10.9719195 127.881131,10.6121388 128.125253,10.3829113 C128.369374,10.1536839 128.674909,10.0398292 129.041859,10.0398292 C129.390384,10.0398292 129.691313,10.15672 129.944646,10.3889836 C130.19798,10.6212471 130.323879,10.9810279 130.323879,11.4622537 C130.323879,11.9465156 130.19798,12.3062964 129.944646,12.5431141 C129.691313,12.7799319 129.390384,12.8983407 129.041859,12.8983407 C128.674909,12.8983407 128.369374,12.7799319 128.125253,12.5431141 C127.881131,12.3062964 127.758303,11.9465156 127.758303,11.4622537 L127.758303,11.4622537 Z" id="Fill-14" fill="#FEFEFE" mask="url(#mask-2)"></path>
                        <path d="M137.344129,27.9758883 C137.727968,27.9758883 138.097988,27.9470451 138.457261,27.8908768 C138.814998,27.8347085 139.097503,27.7770221 139.307846,27.7162996 L139.307846,29.3603612 C139.071402,29.4711797 138.724412,29.5652996 138.266877,29.6381666 C137.809341,29.7125516 137.396331,29.7489851 137.029382,29.7489851 C134.254998,29.7489851 132.867038,28.3037897 132.867038,25.4133989 L132.867038,16.9760081 L130.812735,16.9760081 L130.812735,15.9406896 L132.867038,15.0465508 L133.783644,12.0195344 L135.041099,12.0195344 L135.041099,15.3061395 L139.201907,15.3061395 L139.201907,16.9760081 L135.041099,16.9760081 L135.041099,25.3223152 C135.041099,26.1754663 135.245301,26.8327873 135.65524,27.2897241 C136.06518,27.7481789 136.628655,27.9758883 137.344129,27.9758883" id="Fill-15" fill="#FEFEFE" mask="url(#mask-2)"></path>
                        <path d="M145.634271,16.846821 C144.482756,16.846821 143.564614,17.2172282 142.879846,17.9580427 C142.193543,18.7018933 141.791281,19.7265854 141.668453,21.0397094 L149.168655,21.0397094 C149.168655,19.6840796 148.863119,18.6487611 148.252048,17.9276814 C147.640978,17.2066018 146.768897,16.846821 145.634271,16.846821 M146.223846,29.7488333 C144.103523,29.7488333 142.429988,29.1097291 141.204776,27.8330386 C139.978028,26.5563481 139.365422,24.7847693 139.365422,22.5137479 C139.365422,20.229064 139.935038,18.4119433 141.072735,17.0669401 C142.211968,15.7204187 143.74118,15.046399 145.660372,15.046399 C147.458271,15.046399 148.880008,15.6323711 149.927119,16.8012791 C150.97423,17.9701872 151.497786,19.5125386 151.497786,21.4283333 L151.497786,22.7854811 L141.616251,22.7854811 C141.660776,24.4523136 142.084533,25.7153415 142.892129,26.577601 C143.699725,27.4413785 144.835887,27.8725082 146.302149,27.8725082 C147.846715,27.8725082 149.372857,27.5537151 150.882109,26.9146108 L150.882109,28.8304056 C150.114432,29.156789 149.38821,29.3936067 148.703442,29.5347865 C148.018675,29.6774844 147.192655,29.7488333 146.223846,29.7488333" id="Fill-16" fill="#FEFEFE" mask="url(#mask-2)"></path>
                    </g>
                </g>
            </g>
        </g>
    </g>
</svg>